{
  "log4js": {
    "appenders": {
      "console": {
        "type": "stdout"
      },
      "logfile": {
        "type": "dateFile",
        "filename": "logs/bot.log",
        "compress": true
      }
    },
    "categories": {
      "default": {
        "appenders": ["console", "logfile"],
        "level": "debug"
      }
    }
  }
}
